Event,Equipment,Name,Age,Country,Sex,BirthDay,Division,BodyweightKg,WeightClassKg,Squat1Kg,Squat2Kg,Squat3Kg,Squat4Kg,Bench1Kg,Bench2Kg,Bench3Kg,Bench4Kg,Deadlift1Kg,Deadlift2Kg,Deadlift3Kg,Deadlift4Kg,TotalKg,Best3SquatKg,Best3BenchKg,Best3DeadliftKg,Place
B,Multi-ply,Lucila Rabasa,27,ARG,F,1986-12-05,OPEN,57.8,60,,,,,95,100,-105,,,,,,100,,100,,1
B,Multi-ply,Michele Silva Batista,24,BRA,F,1989-09-21,OPEN,67.5,67.5,,,,,-85,85,95,,,,,,95,,95,,1
B,Multi-ply,Rosa Floriano,41,ARG,F,1973-02-04,M - 40/44,77.7,82.5,,,,,-130,130,140,,,,,,140,,140,,1
B,Multi-ply,Lee Powell,30,ARG,M,1984-03-24,OPEN,,82.5,,,,,,,,,,,,,,,,,DQ
B,Multi-ply,Felix Camin,36,ARG,M,1977-10-14,OPEN - Sub MAS,73.7,75,,,,,180,190,-195,,,,,,190,,190,,1
B,Multi-ply,Alexis Martinez,33,ARG,M,1980-08-13,OPEN - Sub MAS,74.5,75,,,,,160,165,170,,,,,,170,,170,,2
B,Multi-ply,Jose Luis Ferrer,49,ARG,M,1965-05-10,M-45/49,69.1,75,,,,,130,-140,-140,,,,,,130,,130,,1
B,Multi-ply,Matheus Silva Queiroz,18,BRA,M,1995-10-16,T - 18/19,77.9,82.5,,,,,130,140,-150,,,,,,140,,140,,1
B,Multi-ply,Marcos Da Sosa,18,ARG,M,1995-08-25,T-18/19,82.1,82.5,,,,,-130,-130,130,,,,,,130,,130,,1
B,Multi-ply,Walter Javier Barrionuevo,26,ARG,M,1987-07-12,OPEN,82.5,82.5,,,,,-240,240,-260,,,,,,240,,240,,1
B,Multi-ply,Fernando Gonzaga Lorenzo,34,BRA,M,1980-07-27,OPEN -Sub Mas,79.1,82.5,,,,,170,180,-200,,,,,,180,,180,,1
B,Multi-ply,Oscar Figueredo,42,ARG,M,1972-05-06,M - 40/44,82.1,82.5,,,,,170,-182.5,185,,,,,,185,,185,,1
B,Multi-ply,Jose Gabriel Cisnero,41,ARG,M,1973-01-16,M-40/44,78.8,82.5,,,,,-125,130,137.5,,,,,,137.5,,137.5,,2
B,Multi-ply,Valter Antonio,43,BRA,M,1972-01-25,M-40/44,78.4,82.5,,,,,170,-180,-185,,,,,,170,,170,,1
B,Multi-ply,Milou Lazreg,66,FRA,M,1948-01-19,M - 65/69,78,82.5,,,,,90,110,-125,,,,,,110,,110,,1
B,Multi-ply,Emiliano Acosta,67,ARG,M,1946-11-12,M-65/69,77.8,82.5,,,,,-125,-125,125,,,,,,125,,125,,1
B,Multi-ply,Horacio Zoilo,72,ARG,M,1941-11-17,M-70/74,76.5,82.5,,,,,120,140,-145,,,,,,140,,140,,1
B,Multi-ply,Carlos Roberto Rodrigues,29,BRA,M,1985-06-23,OPEN,89.4,90,,,,,210,220,-242.5,,,,,,220,,220,,2
B,Multi-ply,Ján Matej,29,SVK,M,1985-04-29,OPEN,87.7,90,,,,,240,252.5,262.5,,,,,,262.5,,262.5,,1
B,Multi-ply,Ramiro Loeffel,32,ARG,M,1982-01-03,OPEN,86.9,90,,,,,-180,-190,190,,,,,,190,,190,,3
B,Multi-ply,Felipe Nahuel Villa,24,ARG,M,1989-07-06,OPEN,84,90,,,,,-145,145,152.5,,,,,,152.5,,152.5,,4
B,Multi-ply,Rodolfo Villalba,40,ARG,M,1974-07-16,M-40/44,89.5,90,,,,,-210,-210,210,,,,,,210,,210,,2
B,Multi-ply,Daniel Sánchez,40,ARG,M,1973-11-21,M-40/44,89,90,,,,,220,-230,-230,,,,,,220,,220,,1
B,Multi-ply,Oscar Insaurralde,51,ARG,M,1962-03-28,M-50/54,83.6,90,,,,,180,-185,185,,,,,,185,,185,,1
B,Multi-ply,Ján Matej,66,SVK,M,1947-10-18,M - 65/69,90,90,,,,,145,152.5,157.5,,,,,,157.5,,157.5,,1
B,Multi-ply,Oscar Espinello,75,ARG,M,1939-06-16,M-75/79,,90,,,,,,,,,,,,,,,,,DQ
B,Multi-ply,Victor Giles,33,ARG,M,1981-08-07,OPEN,98.6,100,,,,,-230,240,-265,,,,,,240,,240,,1
B,Multi-ply,Sergio Gayoso,53,ARG,M,1961-04-17,M-50/54,98.4,100,,,,,150,180,-195,,,,,,180,,180,,1
B,Multi-ply,Franciszek Szabluk,58,POL,M,1956-09-17,M-55/59,91.8,100,,,,,-180,-180,180,,,,,,180,,180,,1
B,Multi-ply,Miguel Nardini,73,ARG,M,1940-12-08,M-70/74,94.6,100,,,,,130,142.5,150,,,,,,150,,150,,1
B,Multi-ply,Pablo Beroisa,21,ARG,M,1993-03-30,JUNIOR,,110,,,,,,,,,,,,,,,,,DQ
B,Multi-ply,Diego Ojeda,38,ARG,M,1975-08-26,OPEN -Sub Mas,,110,,,,,,,,,,,,,,,,,DQ
B,Multi-ply,Kalle Ylitalo,31,FIN,M,1983-06-13,OPEN -Sub Mas,109.3,110,,,,,270,-302.5,302.5,,,,,,302.5,,302.5,,1
B,Multi-ply,Irlei Felipe,44,BRA,M,1970-05-12,M-40/44,110,110,,,,,-210,-210,-210,,,,,,,,,,DQ
B,Multi-ply,Victor Quispe,43,ARG,M,1970-09-27,M-40/44,105,110,,,,,-160,-175,180,,,,,,180,,180,,1
B,Multi-ply,Nicodemo Beroisa,52,ARG,M,1962-01-06,M-50/54,,110,,,,,,,,,,,,,,,,,DQ
B,Multi-ply,Sergio Devich,64,ARG,M,1950-01-29,M-60/64,109.1,110,,,,,110,120,127.5,,,,,,127.5,,127.5,,1
B,Multi-ply,Gastón Melgarejo,25,ARG,M,1988-08-26,OPEN,115.2,125,,,,,260,-270,-275,,,,,,260,,260,,1
B,Multi-ply,Marek Pivovarnik,29,SVK,M,1984-10-23,OPEN,,125,,,,,,,,,,,,,,,,,DQ
B,Multi-ply,Ernesto Queiruga,44,ARG,M,1970-05-10,M-40/44,115.1,125,,,,,-275,275,280,,,,,,280,,280,,1
B,Multi-ply,Eduardo Alcaraz,45,ARG,M,1968-12-14,M-45/49,114.8,125,,,,,260,-280.5,-280.5,280.5,,,,,260,,260,,1
B,Multi-ply,Serafim Rocha,66,BRA,M,1948-01-01,M-65/69,115.4,125,,,,,140,150,-157.5,,,,,,150,,150,,1
B,Multi-ply,Luciano Newton Pereira,34,BRA,M,1979-12-29,OPEN -Sub Mas,133.7,140,,,,,230,260,-270,,,,,,260,,260,,1
B,Multi-ply,Walter San Miguel,42,ARG,M,1971-06-26,M-40/44,138.2,140,,,,,260,270,280,,,,,,280,,280,,1
B,Multi-ply,Guido Bonanni Neto,22,BRA,M,1992-04-16,JUNIOR,144,140+,,,,,310,-330,330,,,,,,330,,330,,1
B,Multi-ply,Jorge Alvarez,54,ARG,M,1961-04-20,M-50/54,157,140+,,,,,100,112.5,,,,,,,112.5,,112.5,,1
B,Raw,Bettina Razzouki-Korkis,49,POL,F,1965-08-20,M-45/49,51.7,52,,,,,57.5,60.5,62.5,-65,,,,,62.5,,62.5,,1
B,Raw,Mariel Bertona,43,ARG,F,1971-07-04,M - 40/44,55.2,56,,,,,75,80,85,86.5,,,,,85,,85,,1
B,Raw,Slávka Ratvajská,41,SVK,F,1973-12-31,M - 40/44,56,56,,,,,52.5,57.5,60,,,,,,60,,60,,2
B,Raw,Lucila Rabasa,27,ARG,F,1986-12-05,OPEN,58,60,,,,,80,87.5,90,94.5,,,,,90,,90,,1
B,Raw,Monica Johnston,64,CAN,F,1949-10-08,M - 60/64,66.8,67.5,,,,,40,42.5,-45,,,,,,42.5,,42.5,,1
B,Raw,Maraisa Proença Moral,29,BRA,F,1985-04-12,OPEN,60.9,67.5,,,,,42.5,45,47.5,,,,,,47.5,,47.5,,2
B,Raw,Aida Agüero,52,ARG,F,1961-09-15,OPEN,66.5,67.5,,,,,-120,120,125,130,,,,,125,,125,,1
B,Raw,Courtney Johnston,33,CAN,F,1981-08-22,OPEN - Sub MAS,72.5,75,,,,,60,65,67.5,,,,,,67.5,,67.5,,1
B,Raw,Ursula Eulenstein,65,GER,F,1949-08-08,M-65/69,,75,,,,,,,,,,,,,,,,,DQ
B,Raw,Margaret Estabrooks,67,CAN,F,1947-08-19,M-65/69,79.1,82.5,,,,,35,37.5,,,,,,,37.5,,37.5,,1
B,Raw,Rosa Floriano,41,ARG,F,1973-02-04,M - 40/44,78.2,82.5,,,,,105,115,-120,,,,,,115,,115,,1
B,Raw,Mariela Ortellado,29,ARG,F,1985-07-10,OPEN,101.1,90+,,,,,70,90,-100,,,,,,90,,90,,1
B,Raw,Nicolas Salas,19,ARG,M,1997-08-26,T-18/19,,60,,,,,,,,,,,,,,,,,DQ
B,Raw,Alberto Velazquez,21,ARG,M,1992-10-21,JUNIOR,55.6,56,,,,,80,90,-100,,,,,,90,,90,,1
B,Raw,German Diaz Osorio,39,ARG,M,1974-11-15,OPEN - Sub MAS,,56,,,,,,,,,,,,,,,,,DQ
B,Raw,Axel Vazquez,15,ARG,M,1999-07-17,T-13/15,66.3,67.5,,,,,-80,-80,80,98,,,,,80,,80,,1
B,Raw,Gabriel Sanchez,21,ARG,M,1992-07-21,JUNIOR,64.7,67.5,,,,,90,110,115,,,,,,115,,115,,1
B,Raw,Facundo Rovetta,24,ARG,M,1990-03-01,OPEN,67.1,67.5,,,,,105,112.5,117.5,,,,,,117.5,,117.5,,1
B,Raw,Lucas Nicolas Bonzi,18,ARG,M,1995-09-15,T-18/19,71,75,,,,,90,100,110,,,,,,110,,110,,1
B,Raw,David Zerpa,23,ARG,M,1991-02-11,JUNIOR,71.6,75,,,,,100,105,110,,,,,,110,,110,,1
B,Raw,Felix Camin,36,ARG,M,1997-10-14,Open-Sub,73.8,75,,,,,140,155,162.5,,,,,,162.5,,162.5,,1
B,Raw,Juan Sosa,33,ARG,M,1981-03-24,OPEN - Sub MAS,74.3,75,,,,,125,130,135,,,,,,135,,135,,1
B,Raw,Cristian Mansilla,36,ARG,M,1978-03-26,OPEN - Sub MAS,,75,,,,,,,,,,,,,,,,,DQ
B,Raw,Diego Ramirez,33,ARG,M,1981-01-17,OPEN - Sub MAS,73.7,75,,,,,-125,125,-135,,,,,,125,,125,,2
B,Raw,Jose Luis Ferrer,49,ARG,M,1965-05-10,M-45/49,69.3,75,,,,,100,110,115,,,,,,115,,115,,2
B,Raw,Sergei Trukhnin,49,RUS,M,1965-08-10,M-45/49,73.2,75,,,,,120,125,130,,,,,,130,,130,,1
B,Raw,Colin Mullaney,55,CAN,M,1959-09-15,M-55/59,70.1,75,,,,,90,100,110,,,,,,110,,110,,1
B,Raw,Guyhlem Feraud,69,FRA,M,1945-01-25,M - 65/69,73.5,75,,,,,100,110,,,,,,,110,,110,,1
B,Raw,Marcelo Ojeda,16,ARG,M,1998-02-24,T-16/17,,82.5,,,,,,,,,,,,,,,,,DQ
B,Raw,Nicolas Fernandez,19,ARG,M,1994-10-05,T-18/19,81,82.5,,,,,105,110,117.5,,,,,,117.5,,117.5,,1
B,Raw,Marcos Velozo,37,ARG,M,1977-04-24,OPEN -Sub Mas,80.5,82.5,,,,,160,170,182.5,,,,,,182.5,,182.5,,1
B,Raw,Joilson Dos Santos,36,BRA,M,1978-04-22,OPEN -Sub Mas,78.5,82.5,,,,,145,150,160,,,,,,160,,160,,2
B,Raw,Patricio Rodriguez,27,ARG,M,1986-10-11,OPEN,79.5,82.5,,,,,130,135,-140,,,,,,135,,135,,1
B,Raw,Valter Antonio,43,BRA,M,1972-01-25,M-40/44,79.4,82.5,,,,,140,150,-155,,,,,,150,,150,,1
B,Raw,Rafael Silva,45,ARG,M,1969-09-14,M-45/49,82,82.5,,,,,130,140,155,,,,,,155,,155,,1
B,Raw,Jorge Duran,54,ARG,M,1960-05-23,M-50/54,79.7,82.5,,,,,115,120,-125,,,,,,120,,120,,1
B,Raw,Horacio Zoilo,72,ARG,M,1941-11-17,M-70/74,77.3,82.5,,,,,105,130,-135,,,,,,130,,130,,1
B,Raw,Vlastimil Šafařík,15,CZR,M,1998-09-16,T 13/15,86.3,90,,,,,100,110,115,,,,,,115,,115,,1
B,Raw,Federico Leotta,19,ARG,M,1995-05-27,T-18/19,,90,,,,,,,,,,,,,,,,,DQ
B,Raw,Carlos Roberto Rodrigues,29,BRA,M,1985-06-23,OPEN,88.5,90,,,,,135,145,160,,,,,,160,,160,,2
B,Raw,Matías Santa Cruz,26,ARG,M,1987-09-19,OPEN,88.4,90,,,,,175,185,-192.5,,,,,,185,,185,,1
B,Raw,Dmitrii Shumilov,33,RUS,M,1981-05-07,OPEN - Sub Mas,87.4,90,,,,,-190,190,-195,,,,,,190,,190,,1
B,Raw,Simon Godoy,43,ARG,M,1970-11-27,M-40/44,88.9,90,,,,,160,180,-185,,,,,,180,,180,,1
B,Raw,Jose Carambia,47,ARG,M,1967-02-04,M-45/49,88.9,90,,,,,120,145,155,,,,,,155,,155,,1
B,Raw,Joaquim Eulenstein,67,GER,M,1947-05-03,M-65/69,,90,,,,,,,,,,,,,,,,,DQ
B,Raw,Emanuel Romero,18,ARG,M,1995-07-11,T-18/19,,100,,,,,,,,,,,,,,,,,DQ
B,Raw,Dione Cesar Teodoro,22,BRA,M,1992-01-12,JUNIOR,95.1,100,,,,,135,145,-155,,,,,,145,,145,,1
B,Raw,Lucas Rene Basualdo,33,ARG,M,1981-02-20,OPEN - Sub Mas,94,100,,,,,117.5,120,122.5,,,,,,122.5,,122.5,,1
B,Raw,Dmitriy Bubyr,33,RUS,M,1981-05-22,OPEN - Sub Mas,98.1,100,,,,,-175,-175,-175,,,,,,,,,,DQ
B,Raw,Leandro Gimenez,26,ARG,M,1987-04-07,OPEN,97,100,,,,,175,185,190,,,,,,190,,190,,1
B,Raw,Dmitriy Petrov,28,RUS,M,1986-01-29,OPEN,90.5,100,,,,,-175,-175,-175,,,,,,,,,,DQ
B,Raw,Sidnei Crispim Gomes,42,BRA,M,1972-03-18,M-40/44,95.6,100,,,,,130,140,150,,,,,,150,,150,,1
B,Raw,Facundo Paz,40,ARG,M,1974-02-05,M-40/44,,100,,,,,,,,,,,,,,,,,DQ
B,Raw,Gustavo Miño,43,ARG,M,1971-01-15,M-40/44,94.9,100,,,,,135,145,-152.5,,,,,,145,,145,,2
B,Raw,Alexander Antipov,50,RUS,M,1964-08-19,M-50/54,99.3,100,,,,,100,120,130,,,,,,130,,130,,1
B,Raw,Franciszek Szabluk,58,POL,M,1956-09-17,M-55/59,90.6,100,,,,,140,150,,,,,,,150,,150,,1
B,Raw,Miguel Nardini,73,ARG,M,1940-12-08,M-70/74,93.6,100,,,,,110,120,127.5,,,,,,127.5,,127.5,,1
B,Raw,Irlei Felipe,44,BRA,M,1970-05-12,M-40/44,110,110,,,,,160,170,-180,,,,,,170,,170,,2
B,Raw,Victor Quispe,43,ARG,M,1970-09-27,M-40/44,,110,,,,,,,,,,,,,,,,,DQ
B,Raw,Walter Morales,42,ARG,M,1972-06-04,M-40/44,105,110,,,,,160,172.5,-180,,,,,,172.5,,172.5,,1
B,Raw,Omar Cordoba,48,ARG,M,1966-02-07,M-45/49,107,110,,,,,135,145,150,,,,,,150,,150,,2
B,Raw,Michal Šafařík,47,CZR,M,1967-01-14,M-45/49,107.5,110,,,,,140,147.5,152.5,,,,,,152.5,,152.5,,1
B,Raw,Igor Lebedev,52,RUS,M,1962-08-03,M-50/54,101.5,110,,,,,200,205,207.5,,,,,,207.5,,207.5,,1
B,Raw,Jaime Quiñones,19,ARG,M,1986-10-20,T-18/19,,125,,,,,,,,,,,,,,,,,DQ
B,Raw,Salvador Accari,27,ARG,M,1986-10-20,OPEN,119,125,,,,,170,190,-202.5,,,,,,190,,190,,2
B,Raw,Cristian Gutierrez,35,ARG,M,1979-04-03,OPEN,112.7,125,,,,,200,220,225,,,,,,225,,225,,1
B,Raw,Antonio Pereira Filho,36,BRA,M,1978-12-18,OPEN -Sub Mas,115.6,125,,,,,210,220,225,,,,,,225,,225,,1
B,Raw,Ernesto Queiruga,44,ARG,M,1970-05-10,M-40/44,114.6,125,,,,,190,200,210,,,,,,210,,210,,1
B,Raw,Eduardo Alcaraz,45,ARG,M,1968-12-14,M-45/49,112.1,125,,,,,227.5,235,-240,,,,,,235,,235,,1
B,Raw,Serafim Rocha,66,BRA,M,1948-01-01,M-65/69,115.4,125,,,,,120,130,,,,,,,130,,130,,1
B,Raw,Gonzalo Iriarte,34,ARG,M,1980-02-13,OPEN -Sub Mas,136,140,,,,,190,205,-220,,,,,,205,,205,,1
B,Raw,Victor Favalini,40,ARG,M,1974-06-15,M-40/44,142,140+,,,,,190,205,215,,,,,,215,,215,,1
B,Raw,Walter San Miguel,43,ARG,M,1971-06-26,M-40/44,139.4,140,,,,,200,210,220,,,,,,220,,220,,1
B,Raw,Guido Bonanni Neto,22,BRA,M,1992-04-16,JUNIOR,144,140+,,,,,220,240,245,,,,,,245,,245,,1
D,Multi-ply,Francieli Alves De Andrade,26,BRA,F,1988-03-01,OPEN,58.4,60,,,,,,,,,140,-150,-150,-150,,,,140,DQ
D,Multi-ply,Débora Ester,32,BRA,F,1982-01-23,OPEN,,90,,,,,,,,,,,,,,,,,DQ
D,Multi-ply,Pablo Tafarel Sanaioti Silva,25,BRA,M,1988-11-05,OPEN,55.3,56,,,,,,,,,165,175,-190,,,,,175,DQ
D,Multi-ply,Matías Carrizo,17,ARG,M,1996-10-17,T-16/17,67.5,67.5,,,,,,,,,110,130,-155,,,,,130,DQ
D,Multi-ply,Guilherme Garbelini,30,BRA,M,1984-12-15,OPEN,63.6,67.5,,,,,,,,,-175,185,-190,-190,,,,185,DQ
D,Multi-ply,Sandro Zayas,39,ARG,M,1976-06-11,OPEN - Sub Mas,74.5,75,,,,,,,,,240,250,260,-265,,,,260,DQ
D,Multi-ply,Jesus Balbiano,29,ARG,M,1984-07-25,OPEN,82.5,82.5,,,,,,,,,220,230,242.5,,,,,242.5,DQ
D,Multi-ply,Fernando Gonzaga Lorenzo,34,BRA,M,1980-07-27,OPEN -Sub Mas,79.1,82.5,,,,,,,,,200,,,,,,,200,DQ
D,Multi-ply,Jose Gabriel Cisnero,41,ARG,M,1973-01-16,M-40/44,78.8,82.5,,,,,,,,,-165,165,,,,,,165,DQ
D,Multi-ply,Birchmans Pereira,68,CAN,M,1946-08-13,M-65/69,77.8,82.5,,,,,,,,,197.5,205,207.5,-210,,,,207.5,DQ
D,Multi-ply,Juan Pereyra,67,ARG,M,1946-12-21,M-65/69,81,82.5,,,,,,,,,150,160,,,,,,160,DQ
D,Multi-ply,Lee Powell,30,CAN,M,1984-03-24,OPEN,84.4,90,,,,,,,,,230,250,272.5,-281,,,,272.5,DQ
D,Multi-ply,André Guilherme Romeiro Neumann,33,BRA,M,1981-04-06,OPEN -Sub Mas,88.6,90,,,,,,,,,280,-310,-310,,,,,280,DQ
D,Multi-ply,Alberto Caceres,28,ARG,M,1986-04-13,OPEN,,90,,,,,,,,,,,,,,,,,DQ
D,Multi-ply,Oscar Espinello,75,ARG,M,1939-06-16,M-75/79,87.7,90,,,,,,,,,230,245,255,,,,,255,DQ
D,Multi-ply,Marcos Martinez,39,ARG,M,1975-04-22,OPEN - Sub Mas,99,100,,,,,,,,,320,332.5,340,,,,,340,DQ
D,Multi-ply,Luan De Oliveira Franco,26,BRA,M,1988-06-23,OPEN,92.2,100,,,,,,,,,260,-272.5,-272.5,,,,,260,DQ
D,Multi-ply,Tamás Molnár,39,HUN,M,1975-06-06,OPEN - Sub Mas,,100,,,,,,,,,,,,,,,,,DQ
D,Multi-ply,Imad Bahria,39,FRA,M,1975-07-19,OPEN -Sub Mas,93.3,100,,,,,,,,,270,287.5,-292.5,,,,,287.5,DQ
D,Multi-ply,Carlos Garelli,42,ARG,M,1971-09-24,M-40/44,97.5,100,,,,,,,,,205,222.5,,,,,,222.5,DQ
D,Multi-ply,Ivan Giňovský,47,SVK,M,1967-03-31,M-45/49,95.9,100,,,,,,,,,180,200,,,,,,200,DQ
D,Multi-ply,Sergio Gayoso,53,ARG,M,1961-04-17,M-50/54,98.4,100,,,,,,,,,200,235,247.5,,,,,247.5,DQ
D,Multi-ply,Emilio Mansilla,30,ARG,M,1984-01-22,OPEN,106.8,110,,,,,,,,,-305,305,-315,,,,,305,DQ
D,Multi-ply,Walter Morales,42,ARG,M,1972-06-04,M-40/44,105.2,110,,,,,,,,,245.5,,,,,,,245.5,DQ
D,Multi-ply,Victor Quispe,43,ARG,M,1970-09-27,M-40/44,105,110,,,,,,,,,190,210,220,,,,,220,DQ
D,Multi-ply,Marek Pivovarnik,29,SVK,M,1984-10-23,OPEN,125,125,,,,,,,,,250,270,,,,,,270,DQ
D,Multi-ply,Lee Marshall,55,GB,M,1959-01-11,M-55/59,115.8,125,,,,,,,,,300,320,330,,,,,330,DQ
D,Multi-ply,Emanuel Montes De Oca,28,ARG,M,1985-10-06,OPEN,139,140,,,,,,,,,-307.5,-307.5,307.5,,,,,307.5,DQ
D,Multi-ply,Lee Marshall,55,GB,M,1959-01-11,M-55/59,115.8,125,,,,,,,,,300,320,330,,,,,330,DQ
D,Raw,Bettina Razzovki-Korkis,49,POL,F,1965-08-20,M-45/49,51.7,52,,,,,,,,,100,108,,,,,,108,DQ
D,Raw,Marisa De Paiva Pereira Gonçalves,24,BRA,F,1990-06-29,OPEN,58.1,60,,,,,,,,,110,120,,,,,,120,DQ
D,Raw,Laura Aylen Castrilli,17,ARG,F,1997-04-30,T-16/17,57.5,60,,,,,,,,,80,90,100,,,,,100,DQ
D,Raw,Fiamma Costa,23,ARG,F,1991-07-18,JUNIOR,58.8,60,,,,,,,,,135,145,155.5,,,,,155.5,DQ
D,Raw,Rosenilda Oliveira Bonfim,35,BRA,F,1979-03-20,OPEN -Sub Mas,,60,,,,,,,,,,,,,,,,,DQ
D,Raw,Mariel Bertona,42,ARG,F,1971-07-03,M-40/44,56.2,60,,,,,,,,,140,147.5,155,,,,,155,DQ
D,Raw,Daniela Silva,45,ARG,F,1969-08-14,M-45/49,57.2,60,,,,,,,,,70,90,100,-110,,,,100,DQ
D,Raw,Maraisa Proença Moral,29,BRA,F,1985-04-12,OPEN,60.9,67.5,,,,,,,,,85,95,102.5,,,,,102.5,DQ
D,Raw,Carla Padua Garcia,14,BRA,F,2000-03-14,T-13/15,,67.5,,,,,,,,,,,,,,,,,DQ
D,Raw,Michele Silva Batista,24,BRA,F,1989-09-21,OPEN,,67.5,,,,,,,,,,,,,,,,,DQ
D,Raw,Aida Agüero,52,ARG,F,1961-09-15,OPEN,66.5,67.5,,,,,,,,,175.5,187.5,195,,,,,195,DQ
D,Raw,María De Las Nieves Punalef,27,ARG,F,1986-09-07,OPEN,,67.5,,,,,,,,,,,,,,,,,DQ
D,Raw,Mirta Gimenez,52,ARG,F,1962-04-22,M-50/54,65.1,67.5,,,,,,,,,70,82.5,85,,,,,85,DQ
D,Raw,Monica Johnston,64,CAN,F,1949-10-08,M-60/64,66.8,67.5,,,,,,,,,85,87.5,90,92.5,,,,90,DQ
D,Raw,Courtney Johnston,33,CAN,F,1981-08-22,OPEN - Sub Mas,72.5,75,,,,,,,,,150,155,,,,,,155,DQ
D,Raw,Leticia Bertotto,42,ARG,F,1971-09-18,M-40/44,74.3,75,,,,,,,,,150,160,170,,,,,170,DQ
D,Raw,Margaret Estabrooks,67,CAN,F,1947-08-19,M-65/69,79.1,82.5,,,,,,,,,75,80,,,,,,80,DQ
D,Raw,Rosa Floriano,41,ARG,F,1973-02-04,M-40/44,78.2,82.5,,,,,,,,,150,160,-180,,,,,160,DQ
D,Raw,Altamira Sobrinho,46,BRA,F,1967-10-23,M-45/49,76.8,82.5,,,,,,,,,180,190,200,-210,,,,200,DQ
D,Raw,Mariela Ortellado,29,ARG,F,1985-07-10,OPEN,101.1,90+,,,,,,,,,140,160,-170,,,,,160,DQ
D,Raw,Marina Izetta,33,ARG,F,1981-10-22,OPEN -Sub Mas,,90+,,,,,,,,,,,,,,,,,DQ
D,Raw,Pavel Balážik,56,RUS,M,1979-08-23,M-55/59,,56,,,,,,,,,,,,,,,,,DQ
D,Raw,Pablo Tafarel Sanaioti Silva,26,BRA,M,1988-11-05,OPEN,,56,,,,,,,,,,,,,,,,,DQ
D,Raw,Vicente Pereira Magalhães,18,BRA,M,1996-05-28,T-18/19,,60,,,,,,,,,,,,,,,,,DQ
D,Raw,Matías Buffarini,23,ARG,M,1990-12-13,JUNIOR,60,60,,,,,,,,,125,140,170,-180.5,,,,170,DQ
D,Raw,Luis Henrique Elias,22,BRA,M,1992-03-19,JUNIOR,,67.5,,,,,,,,,,,,,,,,,DQ
D,Raw,Ricardo Guizeline Rosa,67,BRA,M,1947-01-13,M-65/69,,67.5,,,,,,,,,,,,,,,,,DQ
D,Raw,Pablo Cornejo,25,ARG,M,1988-07-25,OPEN,67,67.5,,,,,,,,,170,185,,,,,,185,DQ
D,Raw,Michael Jordan Santos Da Mata,21,BRA,M,1993-07-11,JUNIOR,,75,,,,,,,,,,,,,,,,,DQ
D,Raw,Rodrigo Fernandez,18,ARG,M,1995-12-19,T-18/19,,75,,,,,,,,,,,,,,,,,DQ
D,Raw,Enzo Lechman,19,ARG,M,1994-10-04,T-18/19,73.2,75,,,,,,,,,150,,,,,,,150,DQ
D,Raw,Pablo Esquivel,36,ARG,M,1977-12-07,OPEN - Sub Mas,71.2,75,,,,,,,,,200,210,-220,,,,,210,DQ
D,Raw,Ariel Vera,30,ARG,M,1984-06-02,OPEN,73.9,75,,,,,,,,,170,-200,-200,,,,,170,DQ
D,Raw,Adriano DaCosta,51,FRA,M,1963-01-13,M-50/54,73.4,75,,,,,,,,,210,,,,,,,210,DQ
D,Raw,Sergei Trukhnin,49,RUS,M,1965-08-10,M-45/49,73.2,75,,,,,,,,,180,,,,,,,180,DQ
D,Raw,Birchmans Pereira,68,CAN,M,1946-08-13,M-65/69,75,75,,,,,,,,,182.5,-192.5,200,,,,,200,DQ
D,Raw,Guyhlem Feraud,69,FRA,M,1945-01-25,M - 65/69,73.5,75,,,,,,,,,160,167.5,,,,,,167.5,DQ
D,Raw,Fabio Marqueti Gomes,36,BRA,M,1978-12-30,OPEN -Sub Mas,,82.5,,,,,,,,,,,,,,,,,DQ
D,Raw,Júlio Cesar Ferraz,31,BRA,M,1982-01-01,OPEN,,82.5,,,,,,,,,,,,,,,,,DQ
D,Raw,Joilson Dos Santos,36,BRA,M,1978-04-22,OPEN - Sub Mas,78.5,82.5,,,,,,,,,200,210,,,,,,210,DQ
D,Raw,Roberto Ferreira Da Cruz,26,BRA,M,1988-05-08,OPEN,,82.5,,,,,,,,,,,,,,,,,DQ
D,Raw,Jorge Cural,33,ARG,M,1980-09-24,OPEN -Sub Mas,,82.5,,,,,,,,,,,,,,,,,DQ
D,Raw,Colin Mullaney,55,CAN,M,1959-09-15,M-55/59,80.1,82.5,,,,,,,,,100,125,150,,,,,150,DQ
D,Raw,Horacio Zoilo,72,ARG,M,1941-11-17,M-70/74,77.3,82.5,,,,,,,,,160,180,190,-195,,,,190,DQ
D,Raw,Jose Torino,21,ARG,M,1993-01-27,JUNIOR,,82.5,,,,,,,,,,,,,,,,,DQ
D,Raw,Diego Stauro,21,ARG,M,1993-01-27,JUNIOR,,82.5,,,,,,,,,,,,,,,,,DQ
D,Raw,Marcelo Lobo,45,ARG,M,1968-08-29,M-45/49,81.5,82.5,,,,,,,,,205,220,231,-235,,,,231,DQ
D,Raw,Vlastimil Šafařík,15,CZE,M,1998-09-16,T 13/15,86.3,90,,,,,,,,,150,165,180,,,,,180,DQ
D,Raw,Lucas Liljestrhom,23,ARG,M,1990-10-13,JUNIOR,82.8,90,,,,,,,,,180,200,220,,,,,220,DQ
D,Raw,Júlio César Da Silva,24,BRA,M,1990-07-21,OPEN,,90,,,,,,,,,,,,,,,,,DQ
D,Raw,Stanislav Pryakhin,39,RUS,M,1975-03-18,OPEN -Sub Mas,85.5,90,,,,,,,,,240,250,280,,,,,280,DQ
D,Raw,Marcos Cabezas,35,ARG,M,1978-11-23,OPEN - Sub Mas,87.8,90,,,,,,,,,200,215.5,-222.5,,,,,215.5,DQ
D,Raw,Sergio Salas,34,ARG,M,1968-12-17,OPEN - Sub Mas,86.1,90,,,,,,,,,205,-215,-220,,,,,205,DQ
D,Raw,Ricardo Guizeline Rosa,67,BRA,M,1947-01-13,M-65/69,,90,,,,,,,,,,,,,,,,,DQ
D,Raw,Antônio Marcos Xavier Junior,19,BRA,M,1995-07-06,T-18/19,,100,,,,,,,,,,,,,,,,,DQ
D,Raw,Dione Cesar Teodoro,22,BRA,M,1992-01-12,JUNIOR,95.9,100,,,,,,,,,200,225,-230,,,,,225,DQ
D,Raw,Murilo Daniel Dos Santos,27,BRA,M,1985-11-14,OPEN,,100,,,,,,,,,,,,,,,,,DQ
D,Raw,Jose Albornoz,36,ARG,M,1977-09-24,OPEN - Sub Mas,99.1,100,,,,,,,,,290,-300,-315.5,,,,,290,DQ
D,Raw,Tamás Molnár,39,HUN,M,1975-06-06,OPEN - Sub Mas,99.4,100,,,,,,,,,305,315,-320,,,,,315,DQ
D,Raw,Elcio Correa Leite,40,BRA,M,1976-04-26,M-40/44,,100,,,,,,,,,,,,,,,,,DQ
D,Raw,Walter Diaz,41,ARG,M,1973-07-03,M-40/44,93.8,100,,,,,,,,,220,230,-240,,,,,230,DQ
D,Raw,Rodrigo Javier Sanchez,43,ARG,M,1970-11-13,M-40/44,96.1,100,,,,,,,,,240,250,-260.5,,,,,250,DQ
D,Raw,Fabio Pardo,46,ARG,M,1968-09-08,M-45/49,95,100,,,,,,,,,225,240,-265.5,,,,,240,DQ
D,Raw,Sergio Gayoso,53,ARG,M,1961-04-17,M-50/54,98.8,100,,,,,,,,,200,220,,,,,,220,DQ
D,Raw,Michal Šafařík,47,CZE,M,1967-01-14,M-45/49,107.5,110,,,,,,,,,225,240,250,,,,,250,DQ
D,Raw,Alfredo Martín Rojas,28,ARG,M,1985-09-17,OPEN,,110,,,,,,,,,,,,,,,,,DQ
D,Raw,Walter Morales,42,ARG,M,1972-06-04,M-40/44,105,110,,,,,,,,,240,-270.5,,,,,,240,DQ
D,Raw,Marek Pivovarnik,29,SVK,M,1984-10-23,OPEN,124.2,125,,,,,,,,,240,260,-277.5,,,,,260,DQ
D,Raw,Salvador Accari,27,ARG,M,1986-10-20,OPEN,119,125,,,,,,,,,230,250,275,,,,,275,DQ
D,Raw,Emanuel Montes De Oca,28,ARG,M,1985-10-06,OPEN,137.9,140,,,,,,,,,-302.5,302.5,-332.5,,,,,302.5,DQ
D,Raw,Fabricio Ubirajara Assis,36,BRA,M,1978-07-25,OPEN -Sub Mas,137.8,140,,,,,,,,,315,330,-335,,,,,330,DQ
D,Raw,Luciano Newton Pereira,34,BRA,M,1979-12-29,OPEN -Sub Mas,134.4,140,,,,,,,,,230,270,-302.5,,,,,270,DQ
D,Raw,Jorge Alvarez,54,ARG,M,1961-04-20,M-50/54,158,140+,,,,,,,,,160,175,185,,,,,185,DQ
SBD,Multi-ply,Lucila Rabasa,27,ARG,F,1986-12-05,OPEN,57.8,60,145,160,170,,95,100,-105,,-140,140,,,410,170,100,140,1
SBD,Multi-ply,Esko Ketola,72,FIN,M,1941-10-05,M-70/74,67.1,67.5,-180,-180,180,-195,90,-100,100,,180,190,,,470,180,100,190,1
SBD,Multi-ply,Guillermo Rodriguez,37,ARG,M,1977-03-18,OPEN -Sub Mas,64.9,67.5,270,290,-305,,180,-200,200,-210.5,210,-220,-222.5,,700,290,200,210,1
SBD,Multi-ply,Mauricio Hernandez,26,ARG,M,1985-01-01,OPEN,67,67.5,-200,200,-220,,130,140,150,,190,200,-207,,550,200,150,200,1
SBD,Multi-ply,Cristian Mansilla,36,ARG,M,1978-03-26,OPEN -Sub Mas,74,75,-270,270,280,,180,-190,-190,,210,220,-230,,680,280,180,220,1
SBD,Multi-ply,Sandro Zayas,39,ARG,M,1976-06-11,OPEN -Sub Mas,75,75,-210,210,-220,,150,160,-167.5,,245,260,-270,,630,210,160,260,2
SBD,Multi-ply,Gerard Dufour,65,FRA,M,1949-01-26,M-65/69,74.5,75,150,170,177.5,,100,110,115,,190,210,-225,,502.5,177.5,115,210,1
SBD,Multi-ply,David D'arpino,23,ARG,M,1991-01-14,JUNIOR,79.1,82.5,-220,230,-250,,150,157.5,-165,,220,240,-270,,627.5,230,157.5,240,1
SBD,Multi-ply,Enrique Villanueva,31,ARG,M,1983-06-30,OPEN,81.7,82.5,-250,250,260,,160,-170,170,,220,240,,,670,260,170,240,1
SBD,Multi-ply,Jesus Balbiano,29,ARG,M,1984-07-25,OPEN,82.4,82.5,190,-200,,,130,145,150,,230,240,,,580,190,150,240,2
SBD,Multi-ply,Frédéric Parmentier,38,FRA,M,1976-08-02,OPEN - Sub Mas,79.2,82.5,200,-220,-220,,130,140,145,,200,-210,-210,,545,200,145,200,1
SBD,Multi-ply,Oscar Figueredo,42,ARG,M,1972-05-06,M-40/44,82.1,82.5,-270,270,,,160,175,-185,,200,215,-230,,660,270,175,215,1
SBD,Multi-ply,Claudiney Alvarenga,44,BRA,M,1970-03-14,M-40/44,,82.5,,,,,,,,,,,,,,,,,DQ
SBD,Multi-ply,Frédéric Parmentier,38,FRA,M,1976-08-02,OPEN - Sub Mas,79.2,82.5,200,,,,130,,,,200,,,,530,200,130,200,2
SBD,Multi-ply,Juan Pereyra,67,ARG,M,1946-12-21,M-65/69,82.1,82.5,180,200,210,,125,135,-140,,150,160,-170,,505,210,135,160,1
SBD,Multi-ply,Birchmans Pereira,68,CAN,M,1946-08-13,M-65/69,,82.5,,,,,,,,,,,,,,,,,DQ
SBD,Multi-ply,Ján Matej,29,SVK,M,1985-04-29,OPEN,87.5,90,305,320,330,,240,255,-265,,240,257.5,280,,865,330,255,280,3
SBD,Multi-ply,Alberto Caceres,28,ARG,M,1986-04-13,OPEN,,90,,,,,,,,,,,,,,,,,DQ
SBD,Multi-ply,Daniel Sánchez,40,ARG,M,1973-11-21,OPEN,89.1,90,320,350,365,,-220,230,-250,,252.5,270,280,,875,365,230,280,1
SBD,Multi-ply,Kody Presswood,24,USA,M,1989-11-11,OPEN,88.1,90,375,-392.5,-405,,227.5,-237.5,-237.5,,242.5,-260,270,,872.5,375,227.5,270,2
SBD,Multi-ply,Gérard Ivars,48,FRA,M,1966-07-07,M-45/49,88,90,240,-260,260,,-140,140,150,,220,230,-240,,640,260,150,230,1
SBD,Multi-ply,Oscar Espinello,75,ARG,M,1939-06-16,M-75/79,88.2,90,190,205,215,,-100,100,107.5,-112.5,235,250,-260,,572.5,215,107.5,250,1
SBD,Multi-ply,Alberto Caceres,28,ARG,M,1986-04-13,OPEN,91.3,100,265,282.5,292.5,,175,-180,-185,,220,230,-245,,697.5,292.5,175,230,1
SBD,Multi-ply,Marcos Martinez,39,ARG,M,1975-04-22,OPEN -Sub Mas,98.8,100,360,392.5,411,,210,-220,225,,325,342.5,-352.5,,978.5,411,225,342.5,1
SBD,Multi-ply,Libor Hurdálek,60,CZR,M,1954-08-05,M-60/64,99.3,100,230,250,270,,155,165,-170.5,,200,-215,215,,650,270,165,215,1
SBD,Multi-ply,Carlos Garelli,43,ARG,M,1971-09-24,M-40/44,97.5,100,240,250,260,,127.5,135,-140,,-225,225,240,,635,260,135,240,1
SBD,Multi-ply,Marcelo Escobedo,44,ARG,M,1969-11-12,M-40/44,108.5,110,200,220,240,,180,-192.5,192.5,,210,225,235,,667.5,240,192.5,235,1
SBD,Multi-ply,Victor Quispe,43,ARG,M,1970-09-27,M-40/44,102.1,110,190,210,240,,175,180,185,,190,212.5,-225,,637.5,240,185,212.5,2
SBD,Multi-ply,Gonzalo Figueroa,28,ARG,M,1985-03-02,OPEN,103.7,110,260,280,-300,,160,-175,-175,,230,,,,670,280,160,230,1
SBD,Multi-ply,Brian Johnston,49,CAN,M,1964-10-22,M - 45/49,102.8,110,320,360,-412,,190,205,,,225,,,,790,360,205,225,1
SBD,Multi-ply,Sergio Devich,64,ARG,M,1950-01-29,M-60/64,109.9,110,130,-160,160,,115,125,-130,,140,155,-165,,440,160,125,155,1
SBD,Multi-ply,Eric Bar,45,FRA,M,1975-07-19,M-45/49,123.5,125,212.5,230,245,,205,-210,210,,240,260,-265,,715,245,210,260,1
SBD,Multi-ply,Luciano Newton Pereira,34,BRA,M,1979-12-29,OPEN -Sub Mas,,140,,,,,,,,,,,,,,,,,DQ
SBD,Multi-ply,Tim O'Shea,36,AUS,M,1978-05-10,OPEN -Sub Mas,136.5,140,340,-370,-370,,220,-232.5,-232.5,,260,-290,,,820,340,220,260,2
SBD,Multi-ply,Chris Janek,37,USA,M,1961-04-20,OPEN -Sub Mas,139.5,140,480,-502.5,-512.5,,345,,,,352.5,385,-410,,1210,480,345,385,1
SBD,Multi-ply,Jorge Alvarez,54,ARG,M,1961-04-20,M-50/54,157,140+,150,172.5,,,100,-110,-110,,142.5,172.5,,,445,172.5,100,172.5,1
SBD,Raw,Danyelle De Jesus Mota Franco,14,BRA,F,1999-09-15,T/13-15,46.4,48,50,65,80,,25,-32.5,-35,-35,55,65,77.5,80,182.5,80,25,77.5,1
SBD,Raw,Lil Bianchi,30,RSA,F,1984-04-17,OPEN,46.8,48,75,85,90,,47.5,52.5,-55,,115,130,137.5,-140,280,90,52.5,137.5,1
SBD,Raw,Belinda Ryder,43,AUS,F,1970-11-08,OPEN,50.6,52,95,102.5,-110,,-55,55,-57.5,,112.5,120,-130,,277.5,102.5,55,120,1
SBD,Raw,Bettina Razzouki-Korkis,49,POL,F,1965-08-28,M - 45/49,51.6,52,-80,-80,80,,-55,57.5,60.5,,90,100.5,105,,245,80,60.5,105,1
SBD,Raw,Slávka Ratvajská,41,SVK,F,1973-12-31,M - 40/44,,56,,,,,,,,,,,,,,,,,DQ
SBD,Raw,Marisa De Paiva Pereira Gonçalves,24,BRA,F,1990-06-29,OPEN,55.7,56,85,95,100,,45,50,-55,,115,125,132.5,,282.5,100,50,132.5,1
SBD,Raw,Debbie McAlpine,37,RSA,F,1976-10-15,OPEN -Sub Mas,55.9,56,100,107.5,-115,,52.5,55,-57.5,-57.5,102.5,105,-110,111,267.5,107.5,55,105,1
SBD,Raw,Mariel Bertona,42,ARG,F,1971-07-03,M-40/44,54.8,56,135,142.5,-145,,75,80,85,,135,145,150.5,155,377.5,142.5,85,150.5,1
SBD,Raw,Suzzanna Hellena Peixoto,16,BRA,F,1998-01-31,T-16/17,58.5,60,80,90,110,,45,-47.5,47.5,,130,135,140,-142.5,297.5,110,47.5,140,1
SBD,Raw,Laura Aylen Castrilli,17,ARG,F,1997-04-30,T-16/17,57,60,60,75,-85,,30,40,-45,,80,100,105,,220,75,40,105,2
SBD,Raw,Fiamma Costa,23,ARG,F,1991-07-18,JUNIOR,58.8,60,110,122.5,-135,,60,65,71,,135,155.5,165,,358.5,122.5,71,165,1
SBD,Raw,Natalia Perez,21,ARG,F,1993-03-23,JUNIOR,58.4,60,100,110,-120,,47.5,-52.5,52.5,,110,-115,-115,,272.5,110,52.5,110,2
SBD,Raw,Heidi De Mendoca,38,RSA,F,1976-04-17,OPEN -Sub Mas,59,60,90,-97.5,100,,50,-55,-55,,155,160,165,167,315,100,50,165,1
SBD,Raw,Rosenilda Oliveira Bonfim,35,BRA,F,1979-03-20,OPEN -Sub Mas,,60,,,,,,,,,,,,,,,,,DQ
SBD,Raw,Lucila Rabasa,27,ARG,F,1986-12-05,OPEN,58.7,60,140,145,150,155,80,90,97.5,,-125,125,,,372.5,150,97.5,125,1
SBD,Raw,María Izetta,36,ARG,F,1977-12-05,OPEN -Sub Mas,,60,,,,,,,,,,,,,,,,,DQ
SBD,Raw,Victoria Jewson,42,AUS,F,1972-03-13,Open,59.3,60,120,130,-135,,65,70,-72.5,,145,-155,,,345,130,70,145,2
SBD,Raw,Blanka Hronová,45,CZR,F,1969-07-27,M-45/49,56.3,60,40,45,50,,30,35,-37.5,,65,70,75,,160,50,35,75,1
SBD,Raw,Carla Padua Garcia,14,BRA,F,2000-03-14,T/13-15,,67.5,,,,,,,,,,,,,,,,,DQ
SBD,Raw,Caitlin Ross,21,AUS,F,1993-03-02,JUNIOR,66.4,67.5,80,95,-105,,45,55,60,,115,-130,-130,,270,95,60,115,2
SBD,Raw,Tierney Molenaar,22,AUS,F,1991-11-22,JUNIOR,67.4,67.5,120,130,-135,,70,75,-77.5,,140,147.5,-150,,352.5,130,75,147.5,1
SBD,Raw,Maraisa Proença Moral,29,BRA,F,1985-04-12,OPEN,61,67.5,30,40,45,,42.5,45,-50,,85,97.5,105,,195,45,45,105,3
SBD,Raw,Aida Agüero,52,ARG,F,1961-09-15,OPEN,66.2,67.5,180,-193,-193,,120,127.5,132.5,,180,190,-195,,502.5,180,132.5,190,1
SBD,Raw,María De Las Nieves Punalef,27,ARG,F,1986-09-07,OPEN,,67.5,,,,,,,,,,,,,,,,,DQ
SBD,Raw,Michele Silva Batista,24,BRA,F,1989-09-21,OPEN,66.3,67.5,115,130,140,,65,75,-80,,130,140,150,,365,140,75,150,2
SBD,Raw,Zoe Bibbings,42,RSA,F,1972-06-12,M-40/44,67,67.5,140,-145,-145,-145,60,67.5,70,,125,135,-143,-143,345,140,70,135,1
SBD,Raw,Sonja Kruger,47,RSA,F,1967-01-06,M-45/49,63,67.5,85,90,92.5,,60,62.5,-65,-65,135,145,150,-155,305,92.5,62.5,150,1
SBD,Raw,Emily Norce,13,BRA,F,2000-07-07,T/13-15,71.6,75,40,50,55,,25,32.5,-35,,80,85,90,100,177.5,55,32.5,90,1
SBD,Raw,Adriana Plaza,22,ARG,F,1992-03-03,JUNIOR,73,75,95,-105,-110,,45,50,-52.5,,100,115,130,,275,95,50,130,1
SBD,Raw,Estela Peña,24,ARG,F,1990-04-10,OPEN,73.5,75,160,200,220,-240,95,102.5,-105,,190,210.5,215,-220,537.5,220,102.5,215,1
SBD,Raw,Melina Andrea Silva,28,ARG,F,1986-04-26,OPEN,,75,,,,,,,,,,,,,,,,,DQ
SBD,Raw,Courtney Johnston,33,CAN,F,1981-08-22,OPEN - Sub MAS,71.9,75,112.5,120,122.5,,62.5,67.5,70,-70.5,150,160,-165,,352.5,122.5,70,160,1
SBD,Raw,Leticia Bertotto,42,ARG,F,1971-09-18,M-40/44,74.3,75,120,135,-150,,65,75,82.5,,150,162.5,170,,387.5,135,82.5,170,1
SBD,Raw,Rosangela Mendes,49,BRA,F,1965-01-01,M-45/49,69.5,75,80,90,-100,100,-70,70,75,-80,130,-140,140,,305,90,75,140,1
SBD,Raw,Michaela Spadacini,17,BRA,F,1997-07-14,T-16/17,68.5,75,-85,85,-100,,45,-47.5,-47.5,,100,110,-120,,240,85,45,110,1
SBD,Raw,Micaela Symouang,25,ARG,F,1989-05-20,OPEN,81.3,82.5,130,-145,-160,,47.5,-62.5,-65,,155,162.5,170,,347.5,130,47.5,170,3
SBD,Raw,Vallerie Sweeney,29,RSA,F,1984-12-28,OPEN,80.5,82.5,100,110,120,,65,70,72.5,,155,160,165,,357.5,120,72.5,165,2
SBD,Raw,Larissa Oliveira,24,BRA,F,1990-09-04,OPEN,80.3,82.5,-175,175,185,-195,70,80,-85,,180,190,-195,,455,185,80,190,1
SBD,Raw,Rosa Floriano,41,ARG,F,1973-02-04,M-40/44,78,82.5,140,145,150,160.5,100,110,115,,140,150,170,,435,150,115,170,1
SBD,Raw,Artemira Sobrinho,46,BRA,F,1967-10-23,M-45/49,77,82.5,175,190,200,-210,80,90,-100,,185,195,-200,,485,200,90,195,1
SBD,Raw,Margaret Estabrooks,67,CAN,F,1947-08-19,M-65/69,79.9,82.5,45,47.5,52.5,,35,37.5,42,,75,82.5,85,,179.5,52.5,42,85,1
SBD,Raw,Débora Ester,32,BRA,F,1982-01-23,OPEN,,90,,,,,,,,,,,,,,,,,DQ
SBD,Raw,Karyna Carosini,34,ARG,F,1978-12-03,OPEN -Sub Mas,88.5,90,160,170,170.5,-180,70,75,80,-82.5,120,130,140,,390,170.5,80,140,1
SBD,Raw,Stella Pinto,30,ARG,F,1983-11-28,OPEN,,90,,,,,,,,,,,,,,,,,DQ
SBD,Raw,Mariela Ortellado,29,ARG,F,1985-07-10,OPEN,101.5,90+,140,150,-165,,80,90.5,-95,,140,185.5,187.5,,427.5,150,90.5,187.5,1
SBD,Raw,Pavel Balážik,35,SVK,M,1979-08-23,OPEN -Sub Mas,,56,,,,,,,,,,,,,,,,,DQ
SBD,Raw,Pablo Tafarel Sanaioti Silva,26,BRA,M,1988-11-05,OPEN,55.3,56,120,130,140,,80,85,-93,,160,170,-172.5,,395,140,85,170,1
SBD,Raw,Vicente Pereira Magalhães,18,BRA,M,1996-05-28,T-18/19,,60,,,,,,,,,,,,,,,,,DQ
SBD,Raw,Matías Buffarini,23,ARG,M,1990-12-13,JUNIOR,60,60,120,135,145,,70,98,-100,,130,-175.5,-175.5,,372.5,145,98,130,1
SBD,Raw,Davi Micael De Oliveira,15,BRA,M,1999-06-15,T-13/15,64.2,67.5,-130,-140,140,,-70,70,-80,,130,-140,140,,350,140,70,140,1
SBD,Raw,Jorge Abud Neto,17,BRA,M,1997-08-08,T-16/17,,67.5,,,,,,,,,,,,,,,,,DQ
SBD,Raw,Shahien Essakjee,21,RSA,M,1993-07-12,JUNIOR,66.5,67.5,160,170,180,,100,110,-115,,-200,200,212.5,,502.5,180,110,212.5,1
SBD,Raw,Guillermo Rodriguez,37,ARG,M,1977-03-18,OPEN -Sub Mas,65,67.5,225,237.5,250,,132.5,150,-160.5,,195,212.5,-220,,612.5,250,150,212.5,1
SBD,Raw,Pablo Cornejo,25,ARG,M,1988-07-25,OPEN,66.8,67.5,180,-190,-195,,110,120,-130,,170,180,-195,,480,180,120,180,1
SBD,Raw,Steffen Burkhar,64,GER,M,1950-05-29,M-60/64,,67.5,,,,,,,,,,,,,,,,,DQ
SBD,Raw,Henrique Seabra Da Silva,23,BRA,M,1980-11-17,JUNIOR,74.5,75,100,115,-125,,80,90,-100,,170,190,-200,,395,115,90,190,3
SBD,Raw,Kaio Vinicius Barbosa Piva,13,BRA,M,2000-02-25,T-13/15,73.1,75,25,40,55,,25,-37.5,-37.5,,80,,,,160,55,25,80,1
SBD,Raw,Denner Seabra Martins,16,BRA,M,1998-06-14,T 16-17,72,75,110,120,130,,80,90,92.5,,160,180,185,,407.5,130,92.5,185,1
SBD,Raw,Kevin Penailillio,18,ARG,M,1995-07-10,T-18/19,,75,,,,,,,,,,,,,,,,,DQ
SBD,Raw,Enzo Lechman,19,ARG,M,1994-10-04,T-18/19,73.2,75,140,145,-150,,95,102.5,-110,,170,180,-182.5,,427.5,145,102.5,180,1
SBD,Raw,David Zerpa,23,ARG,M,1991-02-11,JUNIOR,,75,,,,,,,,,,,,,,,,,DQ
SBD,Raw,Ezequiel Fernandez Uguet,21,ARG,M,1993-03-03,JUNIOR,74.1,75,150,170,180,,95,105,-110,,170,185,200,,485,180,105,200,1
SBD,Raw,Michael Jordan Santos Da Mata,21,BRA,M,1993-07-11,JUNIOR,73.1,75,-130,-130,130,,90,100,105,,160,170,200,,435,130,105,200,2
SBD,Raw,Juan Sosa,33,ARG,M,1981-03-24,OPEN -Sub Mas,74.4,75,195,205,212,,135,145,150,,215,222.5,227.5,,589.5,212,150,227.5,1
SBD,Raw,Pablo Esquivel,36,ARG,M,1977-12-07,OPEN -Sub Mas,,75,,,,,,,,,,,,,,,,,DQ
SBD,Raw,Martin San Felice,29,ARG,M,1985-04-08,OPEN,,75,,,,,,,,,,,,,,,,,DQ
SBD,Raw,Les Grills,26,AUS,M,1988-04-13,OPEN,74.3,75,232.5,250.5,-260,,162.5,-175,175,,250,-261.5,,,675,250.5,175,250,1
SBD,Raw,Jose Luis Ferrer,49,ARG,M,1965-05-10,M-45/49,68.7,75,130,150,165,,100,110,-117,,130,,,,405,165,110,130,2
SBD,Raw,Sergei Trukhnin,49,RUS,M,1965-08-10,M-45/49,72.1,75,190,210,220,,120,130,141,,180,200,-213,,561,220,141,200,1
SBD,Raw,Adriano DaCosta,51,FRA,M,1963-01-13,M-50/54,74.4,75,210,230,,,130,,,,212.5,220,,,580,230,130,220,1
SBD,Raw,Guyhlem Feraud,69,FRA,M,1945-01-25,M - 65/69,73.5,75,100,115,125,,100,113,,,160,-170,,,397.5,125,113,160,1
SBD,Raw,Facundo Symouang,15,ARG,M,1998-11-18,T-13/15,80.8,82.5,200,210,220,225,100,105,110.5,115,180,190,200,207.5,530,220,110.5,200,1
SBD,Raw,Facundo Piermatei,17,ARG,M,1997-03-09,T-16/17,78.9,82.5,170,175,-180,,90,100,-102.5,,180,190,205,,480,175,100,205,1
SBD,Raw,Jose Torino,21,ARG,M,1995-10-16,JUNIOR,,82.5,,,,,,,,,,,,,,,,,DQ
SBD,Raw,Matheus Silva Queiroz,18,BRA,M,1995-10-16,T - 18/19,77.6,82.5,160,175,190,,100,110,-134,,160,-175,,,460,190,110,160,1
SBD,Raw,Diego Stauro,21,ARG,M,1993-01-27,JUNIOR,81.8,82.5,260,270,-275,,120,130,137.5,,230,242.5,247.5,,655,270,137.5,247.5,1
SBD,Raw,Fabio Marqueti Gomes,36,BRA,M,1978-12-30,OPEN -Sub Mas,78.8,82.5,130,140,-150,,80,-90,90,,160,180,-185,,410,140,90,180,4
SBD,Raw,Júlio Cesar Ferraz,31,BRA,M,1982-01-01,OPEN,,82.5,,,,,,,,,,,,,,,,,DQ
SBD,Raw,Jaco De Waal,25,RSA,M,1989-03-17,OPEN,81.8,82.5,277.5,300,-312.5,-312.5,172.5,187.5,200,,280,305,315,,815,300,200,315,1
SBD,Raw,Fernando Gonzaga Lorenzo,34,BRA,M,1980-07-27,OPEN -Sub Mas,80.2,82.5,170,-210,210,,110,120,135,,170,210,-230,,555,210,135,210,3
SBD,Raw,Marcos Velozo,37,ARG,M,1977-04-24,OPEN -Sub Mas,81.1,82.5,245,-260,265,,172.5,180,185,,240,250,260,,710,265,185,260,1
SBD,Raw,Luis Diaz,33,ARG,M,1980-09-13,OPEN -Sub Mas,82,82.5,-200,-200,200,,100,115,125,,220,240,255,,580,200,125,255,2
SBD,Raw,Lee Powell,30,CAN,M,1984-03-24,OPEN,81.2,82.5,180,197,202.5,,110,122.5,127.5,,230,240,-250,,570,202.5,127.5,240,2
SBD,Raw,Eduardo Cespedes,44,ARG,M,1969-09-12,M-40/44,,82.5,,,,,,,,,,,,,,,,,DQ
SBD,Raw,Colin Mullaney,55,CAN,M,1959-09-15,M-55/59,80.1,82.5,140,155,160,,100,110,115.5,,150,175,180,,455,160,115.5,180,1
SBD,Raw,Jose Augusto Lanzi,57,BRA,M,1956-09-25,M-55/59,,82.5,,,,,,,,,,,,,,,,,DQ
SBD,Raw,Frédéric Parmentier,38,FRA,M,1976-08-02,open,79.1,82.5,180,200,220,,110,120,127.5,,180,205,-222.5,,552.5,220,127.5,205,3
SBD,Raw,Emiliano Acosta,67,ARG,M,1946-11-12,M-65/69,77.8,82.5,-140,140,160,,110,-115,115,,160,170,180,,455,160,115,180,1
SBD,Raw,Birchmans Pereira,68,CAN,M,1946-08-13,M-65/69,76.7,82.5,145,165,172,180.5,52.5,60,65,,192.5,202.5,205,,442.5,172,65,205,2
SBD,Raw,Horacio Zoilo,72,ARG,M,1941-11-17,M-70/74,77.9,82.5,100,-125,125,,105,120,130,,180,-190,-190,,435,125,130,180,1
SBD,Raw,Vlastimil Šafařík,15,CZR,M,1998-09-16,T-13/15,86,90,160,,,,105,,,,140,,,,405,160,105,140,1
SBD,Raw,Stanislav Pryakhin,39,RUS,M,1975-03-18,OPEN -Sub Mas,85.5,90,-260,-260,-260,,,,,,,,,,,,,,DQ
SBD,Raw,Júlio César Da Silva,24,BRA,M,1990-07-21,OPEN,,90,,,,,,,,,,,,,,,,,DQ
SBD,Raw,Lucas Liljestrhom,23,ARG,M,1990-10-13,JUNIOR,83,90,205,220,,,135,145,-152.5,,180,,,,545,220,145,180,1
SBD,Raw,Presley Johnathas Tavares Magalhães,23,BRA,M,1990-11-22,JUNIOR,88.7,90,-200,-220,-220,,,,,,,,,,,,,,DQ
SBD,Raw,Valdemir Affini Da Silva,37,BRA,M,1977-02-19,OPEN -Sub Mas,88.5,90,200,-210,-210,,120,130,135,,210,220,-230,,555,200,135,220,3
SBD,Raw,Marcos Cabezas,35,ARG,M,,OPEN -Sub Mas,87.1,90,-240,240,-250,250,140,155,165,,200,220,-240,,625,240,165,220,2
SBD,Raw,Sergio Salas,34,ARG,M,1968-12-17,OPEN -Sub Mas,,90,,,,,,,,,,,,,,,,,DQ
SBD,Raw,Luis Fonzalida,39,ARG,M,1976-03-22,OPEN -Sub Mas,88,90,-190,-190,-190,,,,,,,,,,,,,,DQ
SBD,Raw,Jose Augusto Da Silva,32,BRA,M,1981-12-21,OPEN,83.9,90,180,200,205,,130,140,-150,,200,210,-217.5,,555,205,140,210,1
SBD,Raw,Imad Bahria,39,FRA,M,1975-07-19,OPEN -Sub Mas,88,90,240,260,280,-290.5,125,132.5,137.5,,265,-285,-285,,682.5,280,137.5,265,1
SBD,Raw,Daniel Sánchez,40,ARG,M,1973-11-21,M-40/44,89.5,90,272.5,285,300,,140,160,172.5,,227.5,237.5,255.5,,727.5,300,172.5,255.5,1
SBD,Raw,Ismael Luna,43,ARG,M,1970-09-15,M-40/44,,90,,,,,,,,,,,,,,,,,DQ
SBD,Raw,Alberto Carlos Seabra Norce,45,BRA,M,1969-08-08,M-45/49,86.3,90,110,117.5,120,,100,110,,,160,,,,390,120,110,160,2
SBD,Raw,Gérard Ivars,47,FRA,M,1966-07-07,M-45/49,87.2,90,210,220,231.5,,110,115,-120,,200,210,220,,566.5,231.5,115,220,1
SBD,Raw,Franciszek Szabluk,58,POL,M,1956-09-17,M-55/59,,90,,,,,,,,,,,,,,,,,DQ
SBD,Raw,Hernan Bedacarratz,59,ARG,M,1954-10-06,M-55/59,87.1,90,150,160,-190,,100,110,,,160,180,-200,,450,160,110,180,1
SBD,Raw,Antônio Marcos Xavier Junior,19,BRA,M,1995-07-06,T-18/19,,100,,,,,,,,,,,,,,,,,DQ
SBD,Raw,Lucas Quitanas,19,ARG,M,1994-11-01,T-18/19,,100,,,,,,,,,,,,,,,,,DQ
SBD,Raw,Dione Cesar Teodoro,22,BRA,M,1992-01-12,JUNIOR,95,100,190,210,-225,,140,-150,150,,210,-230,-230,,570,210,150,210,2
SBD,Raw,Martín Muñoz,23,ARG,M,1991-07-20,JUNIOR,98.1,100,290.5,320,340,-360,-175,182.5,190.5,-195,230,250,270,,800,340,190.5,270,1
SBD,Raw,Murilo Daniel Dos Santos,27,BRA,M,1985-11-14,OPEN,,100,,,,,,,,,,,,,,,,,DQ
SBD,Raw,Jose Albornoz,36,ARG,M,1977-09-24,OPEN -Sub Mas,99.2,100,270,280,290,,160,165,-170,,295,300,,,755,290,165,300,1
SBD,Raw,Marcelo Gatica,32,ARG,M,1981-12-15,OPEN -Sub Mas,99,100,250,-260,260,,140,-155,-155,,230,240,250,,650,260,140,250,2
SBD,Raw,Curtis McDonald,26,USA,M,1987-10-19,Open,99.5,100,285,307.5,317.5,,180,190,195,,280,302.5,312.5,,825,317.5,195,312.5,1
SBD,Raw,David Cleberson Seabra Piva,33,BRA,M,1981-01-19,OPEN -Sub Mas,97.5,110,140,,,,105,,,,210,230,-240,,475,140,105,230,2
SBD,Raw,Ricky Goodyear,39,AUS,M,1975-04-19,OPEN -Sub Mas,99.1,110,315,-325,-325,,200,210,-215,,300,-315,-315,,825,315,210,300,1
SBD,Raw,Elcio Correa Leite,40,BRA,M,1976-04-26,M-40/44,99.3,100,200,220,-240,,150,160,-170,,200,220,-230,,600,220,160,220,2
SBD,Raw,Gustavo Miño,43,ARG,M,1971-01-15,M-40/44,94.4,100,220,227.5,235,,140,147.5,150,,220,235,-240,,620,235,150,235,1
SBD,Raw,Walter Diaz,41,ARG,M,1973-07-03,M-40/44,94.5,100,175,190,200,,140,155,160,,220,235,-240,,595,200,160,235,3
SBD,Raw,Fabio Pardo,45,ARG,M,1968-09-08,M-45/49,95.1,100,220,230,-237,,102.5,110,-112.5,,170,240,257.5,,597.5,230,110,257.5,1
SBD,Raw,Ivan Giňovský,47,SVK,M,1967-03-31,M - 45/49,95.7,100,175,210,230,,125,137.5,-142.5,,195,212.5,230,,597.5,230,137.5,230,1
SBD,Raw,Sergio Gayoso,53,ARG,M,1961-04-17,M-50/54,99.5,100,180,200,215,,130,142.5,-147.5,,200,225,235,,592.5,215,142.5,235,1
SBD,Raw,Bachcevanidis Panajotis,63,CZR,M,1951-09-01,M-60/64,99.3,100,90,105,,,90,-100,100,,130,140,,,345,105,100,140,1
SBD,Raw,Gustavo Castro,18,ARG,M,1995-08-24,T-18/19,,110,,,,,,,,,,,,,,,,,DQ
SBD,Raw,Mohammed Dangor,23,RSA,M,1991-04-07,JUNIOR,107.5,110,265,285,292.5,,170,185,-190,,300,315,330,-340,807.5,292.5,185,330,1
SBD,Raw,Adriano Oliveira Torres,29,BRA,M,1985-02-28,OPEN,108.3,110,-205,205,220,,125,-130,130,,250,265,-270,,615,220,130,265,3
SBD,Raw,Alfredo Martín Rojas,28,ARG,M,1985-09-17,OPEN,108.1,110,270,285,300,,140,155,-162.5,,260,290,-310,,745,300,155,290,1
SBD,Raw,Pablo López,30,ARG,M,1980-09-15,OPEN,106.5,110,200,220,240,,160,175,-180,,200,220,-240,,635,240,175,220,2
SBD,Raw,Adriano Leal Farias,41,BRA,M,1973-01-10,M 40/44,104.5,110,-200,200,220,,140,,,,220,230,240,,600,220,140,240,1
SBD,Raw,Walter Morales,42,ARG,M,1972-06-04,M-40/44,105.1,110,240,260,273,,160,180,187.5,-200.5,240,267.5,,,727.5,273,187.5,267.5,1
SBD,Raw,Victor Quispe,43,ARG,M,1970-09-27,M-40/44,,110,,,,,,,,,,,,,,,,,DQ
SBD,Raw,Walter Britez,45,ARG,M,1968-07-18,M-45/49,107.7,110,220,-240,250,,145,-150,-157.5,,237.5,252.5,262.5,,657.5,250,145,262.5,2
SBD,Raw,Omar Cordoba,48,ARG,M,1966-02-07,M-45/49,107.9,110,190,200,210,,145,-152.5,152.5,,190,215,220,,582.5,210,152.5,220,3
SBD,Raw,Michal Šafařík,47,CZR,M,1967-01-14,M-45/49,107.5,110,235,250,260,,145,-155,160,,235,250,265,,685,260,160,265,1
SBD,Raw,Luboš Halenkovský,54,CZR,M,1959-12-27,M-50/54,101.4,110,110,120,,,100,110,-115,,120,140,,,370,120,110,140,1
SBD,Raw,Juan Domingo Pelozo,60,ARG,M,1954-06-21,M-60/64,,110,,,,,,,,,,,,,,,,,DQ
SBD,Raw,Jan Suda,35,CZR,M,1979-02-27,OPEN -Sub Mas,114.5,125,230,255,265,,165,175,-180,,255,275,-282.5,,715,265,175,275,1
SBD,Raw,Dan Hurlin,27,RSA,M,1986-10-07,OPEN,117.5,125,290,310,325,,180,190,200,,270,290,300,,825,325,200,300,1
SBD,Raw,Andre Sweeney,32,RSA,M,1982-04-13,OPEN,119.2,125,260,285,-295,,-175,175,180,,270,-300,-300,,735,285,180,270,2
SBD,Raw,Timothy Agnew,27,CAN,M,1987-05-15,OPEN,123,125,160,-222.5,-225,,135,-150,-150,,160,200,-210,,495,160,135,200,3
SBD,Raw,Jason Gillespie,42,AUS,M,1972-09-25,M-40/44,123,125,237.5,255,267.5,,167.5,180,187.5,,240,255,-265,,710,267.5,187.5,255,1
SBD,Raw,Jan Kruger,50,RSA,M,1964-01-14,M-50/54,123.5,125,272.5,295,-305,,182.5,195,-200,,285,305,-310,,795,295,195,305,1
SBD,Raw,Luciano Delorenzi,23,ARG,M,1991-01-17,JUNIOR,137.1,140,280,305.5,315,-330,145,157.5,-165,,240,265,277.5,,750,315,157.5,277.5,1
SBD,Raw,Pablo Lucero,29,ARG,M,1985-03-26,OPEN,134.9,140,210,225,-235,,110,120,-125,,190,210,-230,,555,225,120,210,2
SBD,Raw,Marek Pivovarnik,29,SVK,M,1984-10-23,OPEN,126.2,140,210,225,235,,160,170,175,,240,250,-260,,660,235,175,250,1
SBD,Raw,Fabricio Ubirajara Assis,36,BRA,M,1980-07-25,OPEN -Sub Mas,138.9,140,270,-300,-300,,190,200,205,,315,-325,,,790,270,205,315,1
SBD,Raw,Guido Bonanni Neto,22,BRA,M,1992-04-16,JUNIOR,152,140+,-300,-300,300,315,220,240,,,270,280,-300,,820,300,240,280,1
SBD,Raw,Francisco Mansilla,35,ARG,M,1978-09-18,OPEN -Sub Mas,142.4,140+,282.5,-295,-295,,185,197.5,207.5,,240,265,-280,,755,282.5,207.5,265,1
SBD,Raw,Zane Ison,46,RSA,M,1968-08-16,M-45/49,141,140+,320,335,345,,190,-198,198,,240,-301,-301,,782.5,345,198,240,1
SBD,Raw,Saksa Josef,,SVK,M,1985-06-05,OPEN,127,140,,,,,,,,,,,,,,,,,DQ
