Sex,WeightClassKg,Name,Division,Team,BodyweightKg,Best3SquatKg,Best3BenchKg,Best3DeadliftKg,TotalKg,Place,Event,Equipment,AgeClass
F,60,Tiffany Croker,Open,EM,60,120,75,135,330,1,SBD,Single-ply,0-22.5
M,60,Andrew Smith,Open,EM,59.8,115,110,160,385,1,SBD,Single-ply,0-22.5
M,82.5,Gordon Kay,Open,EM,79.4,185,140,185,510,1,SBD,Single-ply,0-22.5
M,90,Nick Rees,Guest,SW,89.6,240,,,,DQ,SBD,Single-ply,0-22.5
M,90,James Jeffries,M1,EM,89.8,160,,230,,DQ,SBD,Single-ply,39.5-48.5
M,110,Joseph Walton,U18,EM,105,260,150,255,665,1,SBD,Single-ply,0-17.5
M,110,Malcolm John Kempton,Open,EM,108.8,,142.5,270,,DQ,SBD,Single-ply,0-22.5
M,125,Jared Fortin,U20,EM,125,260,170,,,DQ,SBD,Single-ply,0-19.5
